<?xml version="1.0" encoding="UTF-8"?>
<svg width="55px" height="37px" viewBox="0 0 55 37" version="1.1" xmlns="http://www.w3.org/2000/svg" xmlns:xlink="http://www.w3.org/1999/xlink">
    <!-- Generator: Sketch 52.6 (67491) - http://www.bohemiancoding.com/sketch -->
    <title>professional-commentator</title>
    <desc>Created with Sketch.</desc>
    <g id="Page-1" stroke="none" stroke-width="1" fill="none" fill-rule="evenodd">
        <g id="professional-commentator" transform="translate(1.000000, 1.000000)" stroke="#FFFFFF">
            <path d="M33.8125,24.5909 L33.1062,25.2073 L24.192,32.987 L23.4837,26.8063 L23.2299,24.5909 L21,24.5909 L4,24.5909 C2.067,24.5909 0.5,23.0239 0.5,21.0909 L0.5,4.00001 C0.5,2.06701 2.06701,0.5 4,0.5 L49,0.5 C50.933,0.5 52.5,2.067 52.5,4 L52.5,21.0909 C52.5,23.0239 50.933,24.5909 49,24.5909 L34.75,24.5909 L33.8125,24.5909 Z" id="Path" stroke-width="3"></path>
            <path d="M7,9 L46,9" id="Path" stroke-width="2"></path>
            <path d="M7,17 L46,17" id="Path" stroke-width="2"></path>
        </g>
    </g>
</svg>